Import and Tidy Data
…
# a regular data frame
head(iris)

##   Sepal.Length Sepal.Width Petal.Length Petal.Width Species
## 1          5.1         3.5          1.4         0.2  setosa
## 2          4.9         3.0          1.4         0.2  setosa
## 3          4.7         3.2          1.3         0.2  setosa
## 4          4.6         3.1          1.5         0.2  setosa
## 5          5.0         3.6          1.4         0.2  setosa
## 6          5.4         3.9          1.7         0.4  setosa

as_tibble(iris)

## # A tibble: 150 x 5
##    Sepal.Length Sepal.Width Petal.Length Petal.Width Species
##           <dbl>       <dbl>        <dbl>       <dbl> <fct>  
##  1         5.10        3.50         1.40       0.200 setosa 
##  2         4.90        3.00         1.40       0.200 setosa 
##  3         4.70        3.20         1.30       0.200 setosa 
##  4         4.60        3.10         1.50       0.200 setosa 
##  5         5.00        3.60         1.40       0.200 setosa 
##  6         5.40        3.90         1.70       0.400 setosa 
##  7         4.60        3.40         1.40       0.300 setosa 
##  8         5.00        3.40         1.50       0.200 setosa 
##  9         4.40        2.90         1.40       0.200 setosa 
## 10         4.90        3.10         1.50       0.100 setosa 
## # ... with 140 more rows
…
Printing of a tibble

By default, tibble prints the first 10 rows and all columns that fit on screen.

tibble(
  a = lubridate::now() + runif(1e3) * 86400,
  b = lubridate::today() + runif(1e3) * 30,
  c = 1:1e3,
  d = runif(1e3),
  e = sample(letters, 1e3, replace = TRUE)
)

## # A tibble: 1,000 x 5
##    a                   b              c      d e    
##    <dttm>              <date>     <int>  <dbl> <chr>
##  1 2018-02-05 19:09:43 2018-02-21     1 0.299  n    
##  2 2018-02-06 05:23:09 2018-02-05     2 0.444  z    
##  3 2018-02-05 12:53:48 2018-02-20     3 0.412  k    
##  4 2018-02-06 01:29:29 2018-02-08     4 0.0988 i    
##  5 2018-02-06 00:35:26 2018-02-28     5 0.947  e    
##  6 2018-02-05 20:09:45 2018-02-20     6 0.802  l    
##  7 2018-02-06 00:58:43 2018-02-20     7 0.660  r    
##  8 2018-02-05 19:35:04 2018-02-21     8 0.0958 r    
##  9 2018-02-05 17:04:53 2018-02-24     9 0.658  a    
## 10 2018-02-05 13:58:46 2018-02-08    10 0.380  a    
## # ... with 990 more rows
…
Read from a local file heights.csv:

(heights <- read_csv("heights.csv"))

## Parsed with column specification:
## cols(
##   earn = col_double(),
##   height = col_double(),
##   sex = col_character(),
##   ed = col_integer(),
##   age = col_integer(),
##   race = col_character()
## )

## # A tibble: 1,192 x 6
##     earn height sex       ed   age race    
##    <dbl>  <dbl> <chr>  <int> <int> <chr>   
##  1 50000   74.4 male      16    45 white   
##  2 60000   65.5 female    16    58 white   
##  3 30000   63.6 female    16    29 white   
##  4 50000   63.1 female    16    91 other   
##  5 51000   63.4 female    17    39 white   
##  6  9000   64.4 female    15    26 white   
##  7 29000   61.7 female    12    49 white   
##  8 32000   72.7 male      17    46 white   
##  9  2000   72.0 male      15    21 hispanic
## 10 27000   72.2 male      12    26 white   
## # ... with 1,182 more rows
…
