Distributed Data Analysis Using sparklyr - Part II
…
system.time({
out <- flights_tbl %>%
  group_by(year) %>%
  count() %>%
  arrange(year) %>%
  collect()
})

##    user  system elapsed 
##   0.028   0.000  31.906

out

## # A tibble: 23 x 2
## # Groups:   year [23]
##     year        n
##    <int>    <dbl>
##  1    NA      22.
##  2  1987 1311826.
##  3  1988 5202096.
##  4  1989 5041200.
##  5  1990 5270893.
##  6  1991 5076925.
##  7  1992 5092157.
##  8  1993 5070501.
##  9  1994 5180048.
## 10  1995 5327435.
## # ... with 13 more rows
…
system.time({
out <- flights_tbl %>%
  filter(origin == "LAX") %>%
  group_by(year) %>%
  count() %>%
  arrange(year) %>%
  collect()
})

##    user  system elapsed 
##   0.032   0.000  30.419

out

## # A tibble: 22 x 2
## # Groups:   year [22]
##     year       n
##    <int>   <dbl>
##  1  1987  45646.
##  2  1988 169696.
##  3  1989 163487.
##  4  1990 169847.
##  5  1991 156947.
##  6  1992 155639.
##  7  1993 152353.
##  8  1994 153494.
##  9  1995 179909.
## 10  1996 184108.
## # ... with 12 more rows
…
system.time({
out <- flights_tbl %>%
  filter(dest == "LAX") %>%
  group_by(year) %>%
  count() %>%
  arrange(year) %>%
  collect()
})

##    user  system elapsed 
##   0.024   0.004  26.907

out

## # A tibble: 22 x 2
## # Groups:   year [22]
##     year       n
##    <int>   <dbl>
##  1  1987  45597.
##  2  1988 169699.
##  3  1989 162763.
##  4  1990 169449.
##  5  1991 156845.
##  6  1992 155270.
##  7  1993 151456.
##  8  1994 152959.
##  9  1995 179950.
## 10  1996 184128.
## # ... with 12 more rows
…
