Data Visualization With ggplot2
…
## ── Conflicts ──────────────────────────────────────────────────────────────────── tidyverse_conflicts() ──
## ✖ dplyr::filter() masks stats::filter()
## ✖ dplyr::lag()    masks stats::lag()

mpg data

mpg data is available from the ggplot2 package:

mpg

## # A tibble: 234 x 11
##    manufac… model   displ  year   cyl trans  drv     cty   hwy fl    class
##    <chr>    <chr>   <dbl> <int> <int> <chr>  <chr> <int> <int> <chr> <chr>
##  1 audi     a4       1.80  1999     4 auto(… f        18    29 p     comp…
##  2 audi     a4       1.80  1999     4 manua… f        21    29 p     comp…
##  3 audi     a4       2.00  2008     4 manua… f        20    31 p     comp…
##  4 audi     a4       2.00  2008     4 auto(… f        21    30 p     comp…
##  5 audi     a4       2.80  1999     6 auto(… f        16    26 p     comp…
##  6 audi     a4       2.80  1999     6 manua… f        18    26 p     comp…
##  7 audi     a4       3.10  2008     6 auto(… f        18    27 p     comp…
##  8 audi     a4 qua…  1.80  1999     4 manua… 4        18    26 p     comp…
##  9 audi     a4 qua…  1.80  1999     4 auto(… 4        16    25 p     comp…
## 10 audi     a4 qua…  2.00  2008     4 manua… 4        20    28 p     comp…
## # ... with 224 more rows
…
Bar charts

diamonds data

diamonds data:

diamonds

## # A tibble: 53,940 x 10
##    carat cut       color clarity depth table price     x     y     z
##    <dbl> <ord>     <ord> <ord>   <dbl> <dbl> <int> <dbl> <dbl> <dbl>
##  1 0.230 Ideal     E     SI2      61.5  55.0   326  3.95  3.98  2.43
##  2 0.210 Premium   E     SI1      59.8  61.0   326  3.89  3.84  2.31
##  3 0.230 Good      E     VS1      56.9  65.0   327  4.05  4.07  2.31
##  4 0.290 Premium   I     VS2      62.4  58.0   334  4.20  4.23  2.63
##  5 0.310 Good      J     SI2      63.3  58.0   335  4.34  4.35  2.75
##  6 0.240 Very Good J     VVS2     62.8  57.0   336  3.94  3.96  2.48
##  7 0.240 Very Good I     VVS1     62.3  57.0   336  3.95  3.98  2.47
##  8 0.260 Very Good H     SI1      61.9  55.0   337  4.07  4.11  2.53
##  9 0.220 Fair      E     VS2      65.1  61.0   337  3.87  3.78  2.49
## 10 0.230 Very Good H     VS1      59.4  61.0   338  4.00  4.05  2.39
## # ... with 53,930 more rows
…
