Working with Database Using dbplyr
…
## Warning in rbind(names(probs), probs_f): number of columns of result is not
## a multiple of vector length (arg 1)

## Warning: 654437 parsing failures.
## row # A tibble: 5 x 5 col     row col                  expected   actual file                      expected   <int> <chr>                <chr>      <chr>  <chr>                     actual 1  2565 Violation Legal Code an integer T      'NYParkingViolations.csv' file 2  3786 Violation Legal Code an integer T      'NYParkingViolations.csv' row 3  3991 Violation Legal Code an integer T      'NYParkingViolations.csv' col 4  3992 Violation Legal Code an integer T      'NYParkingViolations.csv' expected 5  3993 Violation Legal Code an integer T      'NYParkingViolations.csv'
## ... ................. ... ........................................................................ ........ ........................................................................ ...... ........................................................................ .... ........................................................................ ... ........................................................................ ... ........................................................................ ........ ........................................................................
## See problems(...) for more details.

##    user  system elapsed 
##  39.518   2.580  42.359

nyc

## # A tibble: 9,100,278 x 43
##    `Summons Number` `Plate ID` `Registration St… `Plate Type` `Issue Date`
##               <dbl> <chr>      <chr>             <chr>        <chr>       
##  1       1361929741 FCJ5493    NY                PAS          12/18/1970  
##  2       1366962000 63540MC    NY                COM          02/02/1971  
##  3       1342296187 GCY4187    NY                SRF          09/18/1971  
##  4       1342296199 95V6675    TX                PAS          09/18/1971  
##  5       1342296217 FYM5117    NY                SRF          09/18/1971  
##  6       1356906515 GFM1421    NY                PAS          09/18/1971  
##  7       1337077380 18972BB    NY                999          10/10/1971  
##  8       1364523796 WNJ4730    VA                PAS          04/05/1973  
##  9       1359914924 68091JZ    NY                COM          07/22/1973  
## 10       1355498326 EWV4127    NY                PAS          08/12/1973  
## # ... with 9,100,268 more rows, and 38 more variables: `Violation
## #   Code` <int>, `Vehicle Body Type` <chr>, `Vehicle Make` <chr>, `Issuing
## #   Agency` <chr>, `Street Code1` <int>, `Street Code2` <int>, `Street
## #   Code3` <int>, `Vehicle Expiration Date` <int>, `Violation
## #   Location` <chr>, `Violation Precinct` <int>, `Issuer Precinct` <int>,
## #   `Issuer Code` <int>, `Issuer Command` <chr>, `Issuer Squad` <chr>,
## #   `Violation Time` <chr>, `Time First Observed` <chr>, `Violation
## #   County` <chr>, `Violation In Front Of Or Opposite` <chr>,
## #   Number <chr>, Street <chr>, `Intersecting Street` <chr>, `Date First
## #   Observed` <int>, `Law Section` <int>, `Sub Division` <chr>, `Violation
## #   Legal Code` <int>, `Days Parking In Effect` <chr>, `From Hours In
## #   Effect` <chr>, `To Hours In Effect` <chr>, `Vehicle Color` <chr>,
## #   `Unregistered Vehicle?` <int>, `Vehicle Year` <int>, `Meter
## #   Number` <chr>, `Feet From Curb` <int>, `Violation Post Code` <chr>,
## #   `Violation Description` <chr>, `No Standing or Stopping
## #   Violation` <chr>, `Hydrant Violation` <chr>, `Double Parking
## #   Violation` <chr>

Fix column names

names(nyc) = str_replace_all(names(nyc), " ", "_")
nyc

## # A tibble: 9,100,278 x 43
##    Summons_Number Plate_ID Registration_State Plate_Type Issue_Date
##             <dbl> <chr>    <chr>              <chr>      <chr>     
##  1     1361929741 FCJ5493  NY                 PAS        12/18/1970
##  2     1366962000 63540MC  NY                 COM        02/02/1971
##  3     1342296187 GCY4187  NY                 SRF        09/18/1971
##  4     1342296199 95V6675  TX                 PAS        09/18/1971
##  5     1342296217 FYM5117  NY                 SRF        09/18/1971
##  6     1356906515 GFM1421  NY                 PAS        09/18/1971
##  7     1337077380 18972BB  NY                 999        10/10/1971
##  8     1364523796 WNJ4730  VA                 PAS        04/05/1973
##  9     1359914924 68091JZ  NY                 COM        07/22/1973
## 10     1355498326 EWV4127  NY                 PAS        08/12/1973
## # ... with 9,100,268 more rows, and 38 more variables:
## #   Violation_Code <int>, Vehicle_Body_Type <chr>, Vehicle_Make <chr>,
## #   Issuing_Agency <chr>, Street_Code1 <int>, Street_Code2 <int>,
## #   Street_Code3 <int>, Vehicle_Expiration_Date <int>,
## #   Violation_Location <chr>, Violation_Precinct <int>,
## #   Issuer_Precinct <int>, Issuer_Code <int>, Issuer_Command <chr>,
## #   Issuer_Squad <chr>, Violation_Time <chr>, Time_First_Observed <chr>,
## #   Violation_County <chr>, Violation_In_Front_Of_Or_Opposite <chr>,
## #   Number <chr>, Street <chr>, Intersecting_Street <chr>,
…
## The following object is masked from 'package:purrr':
## 
##     set_names

## The following object is masked from 'package:tidyr':
## 
##     extract

(nyc %<>% 
  select(Registration_State:Issuing_Agency, 
         Violation_Location, Violation_Precinct, Violation_Time,
         Number:Intersecting_Street, Vehicle_Color))

## # A tibble: 9,100,278 x 14
##    Registration_Sta… Plate_Type Issue_Date Violation_Code Vehicle_Body_Ty…
##    <chr>             <chr>      <chr>               <int> <chr>           
##  1 NY                PAS        12/18/1970             20 SUBN            
##  2 NY                COM        02/02/1971             46 DELV            
##  3 NY                SRF        09/18/1971             21 VAN             
##  4 TX                PAS        09/18/1971             21 <NA>            
##  5 NY                SRF        09/18/1971             21 SUBN            
##  6 NY                PAS        09/18/1971             40 SDN             
##  7 NY                999        10/10/1971             14 BUS             
##  8 VA                PAS        04/05/1973             14 SDN             
##  9 NY                COM        07/22/1973             46 DELV            
## 10 NY                PAS        08/12/1973             21 SUBN            
## # ... with 9,100,268 more rows, and 9 more variables: Vehicle_Make <chr>,
## #   Issuing_Agency <chr>, Violation_Location <chr>,
## #   Violation_Precinct <int>, Violation_Time <chr>, Number <chr>,
## #   Street <chr>, Intersecting_Street <chr>, Vehicle_Color <chr>
…
library(lubridate)
class(nyc$Issue_Date)

## [1] "character"

#nyc %<>% mutate(Issue_Date = mdy(Issue_Date, tz = "America/New_York"))
nyc %<>% mutate(Issue_Date = mdy(Issue_Date))
class(nyc$Issue_Date)

## [1] "Date"

nyc

## # A tibble: 9,100,278 x 43
##    Summons_Number Plate_ID Registration_State Plate_Type Issue_Date
##             <dbl> <chr>    <chr>              <chr>      <date>    
##  1     1361929741 FCJ5493  NY                 PAS        1970-12-18
##  2     1366962000 63540MC  NY                 COM        1971-02-02
##  3     1342296187 GCY4187  NY                 SRF        1971-09-18
##  4     1342296199 95V6675  TX                 PAS        1971-09-18
##  5     1342296217 FYM5117  NY                 SRF        1971-09-18
##  6     1356906515 GFM1421  NY                 PAS        1971-09-18
##  7     1337077380 18972BB  NY                 999        1971-10-10
##  8     1364523796 WNJ4730  VA                 PAS        1973-04-05
##  9     1359914924 68091JZ  NY                 COM        1973-07-22
## 10     1355498326 EWV4127  NY                 PAS        1973-08-12
## # ... with 9,100,268 more rows, and 38 more variables:
## #   Violation_Code <int>, Vehicle_Body_Type <chr>, Vehicle_Make <chr>,
## #   Issuing_Agency <chr>, Street_Code1 <int>, Street_Code2 <int>,
## #   Street_Code3 <int>, Vehicle_Expiration_Date <int>,
## #   Violation_Location <chr>, Violation_Precinct <int>,
## #   Issuer_Precinct <int>, Issuer_Code <int>, Issuer_Command <chr>,
## #   Issuer_Squad <chr>, Violation_Time <chr>, Time_First_Observed <chr>,
## #   Violation_County <chr>, Violation_In_Front_Of_Or_Opposite <chr>,
## #   Number <chr>, Street <chr>, Intersecting_Street <chr>,
…
filter(nyc, Issue_Date >= mdy("1/1/2013"), Issue_Date <= mdy("12/31/2014"))

## # A tibble: 9,095,621 x 43
##    Summons_Number Plate_ID Registration_State Plate_Type Issue_Date
##             <dbl> <chr>    <chr>              <chr>      <date>    
##  1     6020407718 905UD    NY                 PAS        2013-07-29
##  2     1360169945 44612JW  NY                 COM        2013-01-07
##  3     1357040465 45621MB  NY                 COM        2013-01-01
##  4     1360945556 58845Y   IL                 PAS        2013-01-01
##  5     1361634200 WUG50F   NJ                 PAS        2013-01-01
##  6     1359577245 BTM2414  NY                 PAS        2013-01-01
##  7     1357050513 78657JZ  NY                 COM        2013-01-01
##  8     1356820669 17840MD  NY                 COM        2013-01-01
##  9     1361489236 2SX974   OK                 PAS        2013-01-01
## 10     1357956034 76252JY  NY                 COM        2013-01-01
## # ... with 9,095,611 more rows, and 38 more variables:
## #   Violation_Code <int>, Vehicle_Body_Type <chr>, Vehicle_Make <chr>,
## #   Issuing_Agency <chr>, Street_Code1 <int>, Street_Code2 <int>,
## #   Street_Code3 <int>, Vehicle_Expiration_Date <int>,
## #   Violation_Location <chr>, Violation_Precinct <int>,
## #   Issuer_Precinct <int>, Issuer_Code <int>, Issuer_Command <chr>,
## #   Issuer_Squad <chr>, Violation_Time <chr>, Time_First_Observed <chr>,
## #   Violation_County <chr>, Violation_In_Front_Of_Or_Opposite <chr>,
## #   Number <chr>, Street <chr>, Intersecting_Street <chr>,
…
## Warning in rbind(names(probs), probs_f): number of columns of result is not
## a multiple of vector length (arg 1)

## Warning: 654437 parsing failures.
## row # A tibble: 5 x 5 col     row col                  expected   actual file                      expected   <int> <chr>                <chr>      <chr>  <chr>                     actual 1  2565 Violation Legal Code an integer T      'NYParkingViolations.csv' file 2  3786 Violation Legal Code an integer T      'NYParkingViolations.csv' row 3  3991 Violation Legal Code an integer T      'NYParkingViolations.csv' col 4  3992 Violation Legal Code an integer T      'NYParkingViolations.csv' expected 5  3993 Violation Legal Code an integer T      'NYParkingViolations.csv'
## ... ................. ... ........................................................................ ........ ........................................................................ ...... ........................................................................ .... ........................................................................ ... ........................................................................ ... ........................................................................ ........ ........................................................................
## See problems(...) for more details.

##    user  system elapsed 
##  53.582   8.113  66.584

nyc

## # A tibble: 9,095,621 x 18
##    Registration_Sta… Plate_Type Issue_Date Violation_Code Vehicle_Body_Ty…
##    <chr>             <chr>      <date>              <int> <chr>           
##  1 NY                PAS        2013-07-29             94 <NA>            
##  2 NY                COM        2013-01-07             19 DELV            
##  3 NY                COM        2013-01-01             46 DELV            
##  4 IL                PAS        2013-01-01             78 VAN             
##  5 NJ                PAS        2013-01-01             46 SUBN            
##  6 NY                PAS        2013-01-01             46 SDN             
##  7 NY                COM        2013-01-01             78 VAN             
##  8 NY                COM        2013-01-01             46 SDN             
##  9 OK                PAS        2013-01-01             47 TRLR            
## 10 NY                COM        2013-01-01             45 DELV            
## # ... with 9,095,611 more rows, and 13 more variables: Vehicle_Make <chr>,
## #   Issuing_Agency <chr>, Violation_Location <chr>,
## #   Violation_Precinct <int>, Violation_Time <chr>, Number <chr>,
## #   Street <chr>, Intersecting_Street <chr>, Vehicle_Color <chr>,
## #   Issue_Day <int>, Issue_Month <dbl>, Issue_Year <dbl>, Issue_WDay <ord>
…
