Data Transformation With dplyr
…
nycflights13 data

Available from the nycflights13 package.

336,776 flights that departed from New York City in 2013:

library("tidyverse")

library("nycflights13")
flights

## # A tibble: 336,776 x 19
##     year month   day dep_time sched_dep_time dep_delay arr_time
##    <int> <int> <int>    <int>          <int>     <dbl>    <int>
##  1  2013     1     1      517            515      2.00      830
##  2  2013     1     1      533            529      4.00      850
##  3  2013     1     1      542            540      2.00      923
##  4  2013     1     1      544            545     -1.00     1004
##  5  2013     1     1      554            600     -6.00      812
##  6  2013     1     1      554            558     -4.00      740
##  7  2013     1     1      555            600     -5.00      913
##  8  2013     1     1      557            600     -3.00      709
##  9  2013     1     1      557            600     -3.00      838
## 10  2013     1     1      558            600     -2.00      753
## # ... with 336,766 more rows, and 12 more variables: sched_arr_time <int>,
## #   arr_delay <dbl>, carrier <chr>, flight <int>, tailnum <chr>,
## #   origin <chr>, dest <chr>, air_time <dbl>, distance <dbl>, hour <dbl>,
## #   minute <dbl>, time_hour <dttm>
…
Pick variables by their names: select().

Create new variables with functions of existing variables: mutate().

Collapse many values down to a single summary: summarise().

Filter rows with filter()

Flights on Jan 1st:

# same as filter(flights, month == 1 & day == 1)
filter(flights, month == 1, day == 1)

## # A tibble: 842 x 19
##     year month   day dep_time sched_dep_time dep_delay arr_time
##    <int> <int> <int>    <int>          <int>     <dbl>    <int>
##  1  2013     1     1      517            515      2.00      830
##  2  2013     1     1      533            529      4.00      850
##  3  2013     1     1      542            540      2.00      923
##  4  2013     1     1      544            545     -1.00     1004
##  5  2013     1     1      554            600     -6.00      812
##  6  2013     1     1      554            558     -4.00      740
##  7  2013     1     1      555            600     -5.00      913
##  8  2013     1     1      557            600     -3.00      709
##  9  2013     1     1      557            600     -3.00      838
## 10  2013     1     1      558            600     -2.00      753
## # ... with 832 more rows, and 12 more variables: sched_arr_time <int>,
## #   arr_delay <dbl>, carrier <chr>, flight <int>, tailnum <chr>,
## #   origin <chr>, dest <chr>, air_time <dbl>, distance <dbl>, hour <dbl>,
## #   minute <dbl>, time_hour <dttm>

Flights in Nov or Dec:

filter(flights, month == 11 | month == 12)

## # A tibble: 55,403 x 19
##     year month   day dep_time sched_dep_time dep_delay arr_time
##    <int> <int> <int>    <int>          <int>     <dbl>    <int>
##  1  2013    11     1        5           2359      6.00      352
##  2  2013    11     1       35           2250    105         123
##  3  2013    11     1      455            500   -  5.00      641
##  4  2013    11     1      539            545   -  6.00      856
##  5  2013    11     1      542            545   -  3.00      831
##  6  2013    11     1      549            600   - 11.0       912
##  7  2013    11     1      550            600   - 10.0       705
##  8  2013    11     1      554            600   -  6.00      659
##  9  2013    11     1      554            600   -  6.00      826
## 10  2013    11     1      554            600   -  6.00      749
## # ... with 55,393 more rows, and 12 more variables: sched_arr_time <int>,
## #   arr_delay <dbl>, carrier <chr>, flight <int>, tailnum <chr>,
## #   origin <chr>, dest <chr>, air_time <dbl>, distance <dbl>, hour <dbl>,
## #   minute <dbl>, time_hour <dttm>
…
Randomly select fraction of rows:

sample_frac(flights, 0.1, replace = TRUE)

## # A tibble: 33,678 x 19
##     year month   day dep_time sched_dep_time dep_delay arr_time
##    <int> <int> <int>    <int>          <int>     <dbl>    <int>
##  1  2013     1     3     1805           1727     38.0      2102
##  2  2013     9    16      853            859    - 6.00      957
##  3  2013     4    24     1412           1305     67.0      1553
##  4  2013    12     5      856            900    - 4.00     1248
##  5  2013     2     2     2016           2030    -14.0      2135
##  6  2013    12     5       NA           2009     NA          NA
##  7  2013     1     9     1404           1405    - 1.00     1705
##  8  2013    10    12     1330           1329      1.00     1602
##  9  2013    10    25      755            800    - 5.00      903
## 10  2013     7    25     2035           1935     60.0      2206
## # ... with 33,668 more rows, and 12 more variables: sched_arr_time <int>,
## #   arr_delay <dbl>, carrier <chr>, flight <int>, tailnum <chr>,
## #   origin <chr>, dest <chr>, air_time <dbl>, distance <dbl>, hour <dbl>,
## #   minute <dbl>, time_hour <dttm>
…
Arrange rows with arrange()

Sort in ascending order:

arrange(flights, year, month, day)

## # A tibble: 336,776 x 19
##     year month   day dep_time sched_dep_time dep_delay arr_time
##    <int> <int> <int>    <int>          <int>     <dbl>    <int>
##  1  2013     1     1      517            515      2.00      830
##  2  2013     1     1      533            529      4.00      850
##  3  2013     1     1      542            540      2.00      923
##  4  2013     1     1      544            545     -1.00     1004
##  5  2013     1     1      554            600     -6.00      812
##  6  2013     1     1      554            558     -4.00      740
##  7  2013     1     1      555            600     -5.00      913
##  8  2013     1     1      557            600     -3.00      709
##  9  2013     1     1      557            600     -3.00      838
## 10  2013     1     1      558            600     -2.00      753
## # ... with 336,766 more rows, and 12 more variables: sched_arr_time <int>,
## #   arr_delay <dbl>, carrier <chr>, flight <int>, tailnum <chr>,
## #   origin <chr>, dest <chr>, air_time <dbl>, distance <dbl>, hour <dbl>,
## #   minute <dbl>, time_hour <dttm>
…
Select columns with select()

Select columns by variable name:

select(flights, year, month, day)

## # A tibble: 336,776 x 3
##     year month   day
##    <int> <int> <int>
##  1  2013     1     1
##  2  2013     1     1
##  3  2013     1     1
##  4  2013     1     1
##  5  2013     1     1
##  6  2013     1     1
##  7  2013     1     1
##  8  2013     1     1
##  9  2013     1     1
## 10  2013     1     1
## # ... with 336,766 more rows

Select columns between two variables:

select(flights, year:day)

## # A tibble: 336,776 x 3
##     year month   day
##    <int> <int> <int>
##  1  2013     1     1
##  2  2013     1     1
##  3  2013     1     1
##  4  2013     1     1
##  5  2013     1     1
##  6  2013     1     1
##  7  2013     1     1
##  8  2013     1     1
##  9  2013     1     1
## 10  2013     1     1
## # ... with 336,766 more rows

Select columns except those between two variables:

select(flights, -(year:day))

## # A tibble: 336,776 x 16
##    dep_time sched_dep_time dep_delay arr_time sched_arr_time arr_delay
##       <int>          <int>     <dbl>    <int>          <int>     <dbl>
##  1      517            515      2.00      830            819     11.0 
##  2      533            529      4.00      850            830     20.0 
##  3      542            540      2.00      923            850     33.0 
##  4      544            545     -1.00     1004           1022    -18.0 
##  5      554            600     -6.00      812            837    -25.0 
##  6      554            558     -4.00      740            728     12.0 
##  7      555            600     -5.00      913            854     19.0 
##  8      557            600     -3.00      709            723    -14.0 
##  9      557            600     -3.00      838            846    - 8.00
## 10      558            600     -2.00      753            745      8.00
## # ... with 336,766 more rows, and 10 more variables: carrier <chr>,
## #   flight <int>, tailnum <chr>, origin <chr>, dest <chr>, air_time <dbl>,
## #   distance <dbl>, hour <dbl>, minute <dbl>, time_hour <dttm>

Select columns by positions:

select(flights, seq(1, 10, by = 2))

## # A tibble: 336,776 x 5
##     year   day sched_dep_time arr_time arr_delay
##    <int> <int>          <int>    <int>     <dbl>
##  1  2013     1            515      830     11.0 
##  2  2013     1            529      850     20.0 
##  3  2013     1            540      923     33.0 
##  4  2013     1            545     1004    -18.0 
##  5  2013     1            600      812    -25.0 
##  6  2013     1            558      740     12.0 
##  7  2013     1            600      913     19.0 
##  8  2013     1            600      709    -14.0 
##  9  2013     1            600      838    - 8.00
## 10  2013     1            600      753      8.00
## # ... with 336,766 more rows

Move variables to the start of data frame:

select(flights, time_hour, air_time, everything())

## # A tibble: 336,776 x 19
##    time_hour           air_time  year month   day dep_time sched_dep_time
##    <dttm>                 <dbl> <int> <int> <int>    <int>          <int>
##  1 2013-01-01 05:00:00    227    2013     1     1      517            515
##  2 2013-01-01 05:00:00    227    2013     1     1      533            529
##  3 2013-01-01 05:00:00    160    2013     1     1      542            540
##  4 2013-01-01 05:00:00    183    2013     1     1      544            545
##  5 2013-01-01 06:00:00    116    2013     1     1      554            600
##  6 2013-01-01 05:00:00    150    2013     1     1      554            558
##  7 2013-01-01 06:00:00    158    2013     1     1      555            600
##  8 2013-01-01 06:00:00     53.0  2013     1     1      557            600
##  9 2013-01-01 06:00:00    140    2013     1     1      557            600
## 10 2013-01-01 06:00:00    138    2013     1     1      558            600
## # ... with 336,766 more rows, and 12 more variables: dep_delay <dbl>,
## #   arr_time <int>, sched_arr_time <int>, arr_delay <dbl>, carrier <chr>,
## #   flight <int>, tailnum <chr>, origin <chr>, dest <chr>, distance <dbl>,
## #   hour <dbl>, minute <dbl>
…
one_of()

Add new variables with mutate()

Add variables gain and speed:

flights_sml <- 
  select(flights, year:day, ends_with("delay"), distance, air_time)
mutate(flights_sml,
  gain = arr_delay - dep_delay,
  speed = distance / air_time * 60
)

## # A tibble: 336,776 x 9
##     year month   day dep_delay arr_delay distance air_time   gain speed
##    <int> <int> <int>     <dbl>     <dbl>    <dbl>    <dbl>  <dbl> <dbl>
##  1  2013     1     1      2.00     11.0      1400    227     9.00   370
##  2  2013     1     1      4.00     20.0      1416    227    16.0    374
##  3  2013     1     1      2.00     33.0      1089    160    31.0    408
##  4  2013     1     1     -1.00    -18.0      1576    183   -17.0    517
##  5  2013     1     1     -6.00    -25.0       762    116   -19.0    394
##  6  2013     1     1     -4.00     12.0       719    150    16.0    288
##  7  2013     1     1     -5.00     19.0      1065    158    24.0    404
##  8  2013     1     1     -3.00    -14.0       229     53.0 -11.0    259
##  9  2013     1     1     -3.00    - 8.00      944    140   - 5.00   405
## 10  2013     1     1     -2.00      8.00      733    138    10.0    319
## # ... with 336,766 more rows

Refer to columns that you’ve just created:

mutate(flights_sml,
  gain = arr_delay - dep_delay,
  hours = air_time / 60,
  gain_per_hour = gain / hours
)

## # A tibble: 336,776 x 10
##     year month   day dep_delay arr_delay distance air_time   gain hours
##    <int> <int> <int>     <dbl>     <dbl>    <dbl>    <dbl>  <dbl> <dbl>
##  1  2013     1     1      2.00     11.0      1400    227     9.00 3.78 
##  2  2013     1     1      4.00     20.0      1416    227    16.0  3.78 
##  3  2013     1     1      2.00     33.0      1089    160    31.0  2.67 
##  4  2013     1     1     -1.00    -18.0      1576    183   -17.0  3.05 
##  5  2013     1     1     -6.00    -25.0       762    116   -19.0  1.93 
##  6  2013     1     1     -4.00     12.0       719    150    16.0  2.50 
##  7  2013     1     1     -5.00     19.0      1065    158    24.0  2.63 
##  8  2013     1     1     -3.00    -14.0       229     53.0 -11.0  0.883
##  9  2013     1     1     -3.00    - 8.00      944    140   - 5.00 2.33 
## 10  2013     1     1     -2.00      8.00      733    138    10.0  2.30 
## # ... with 336,766 more rows, and 1 more variable: gain_per_hour <dbl>

Only keep the new variables by transmute():

transmute(flights,
  gain = arr_delay - dep_delay,
  hours = air_time / 60,
  gain_per_hour = gain / hours
)

## # A tibble: 336,776 x 3
##      gain hours gain_per_hour
##     <dbl> <dbl>         <dbl>
##  1   9.00 3.78           2.38
##  2  16.0  3.78           4.23
##  3  31.0  2.67          11.6 
##  4 -17.0  3.05         - 5.57
##  5 -19.0  1.93         - 9.83
##  6  16.0  2.50           6.40
##  7  24.0  2.63           9.11
##  8 -11.0  0.883        -12.5 
##  9 - 5.00 2.33         - 2.14
## 10  10.0  2.30           4.35
## # ... with 336,766 more rows
…
Mean of a variable:

summarise(flights, delay = mean(dep_delay, na.rm = TRUE))

## # A tibble: 1 x 1
##   delay
##   <dbl>
## 1  12.6

Convert a tibble into a grouped tibble:

(by_day <- group_by(flights, year, month, day))

## # A tibble: 336,776 x 19
## # Groups:   year, month, day [365]
##     year month   day dep_time sched_dep_time dep_delay arr_time
##    <int> <int> <int>    <int>          <int>     <dbl>    <int>
##  1  2013     1     1      517            515      2.00      830
##  2  2013     1     1      533            529      4.00      850
##  3  2013     1     1      542            540      2.00      923
##  4  2013     1     1      544            545     -1.00     1004
##  5  2013     1     1      554            600     -6.00      812
##  6  2013     1     1      554            558     -4.00      740
##  7  2013     1     1      555            600     -5.00      913
##  8  2013     1     1      557            600     -3.00      709
##  9  2013     1     1      557            600     -3.00      838
## 10  2013     1     1      558            600     -2.00      753
## # ... with 336,766 more rows, and 12 more variables: sched_arr_time <int>,
## #   arr_delay <dbl>, carrier <chr>, flight <int>, tailnum <chr>,
## #   origin <chr>, dest <chr>, air_time <dbl>, distance <dbl>, hour <dbl>,
## #   minute <dbl>, time_hour <dttm>

Grouped summaries:

summarise(by_day, delay = mean(dep_delay, na.rm = TRUE))

## # A tibble: 365 x 4
## # Groups:   year, month [?]
##     year month   day delay
##    <int> <int> <int> <dbl>
##  1  2013     1     1 11.5 
##  2  2013     1     2 13.9 
##  3  2013     1     3 11.0 
##  4  2013     1     4  8.95
##  5  2013     1     5  5.73
##  6  2013     1     6  7.15
##  7  2013     1     7  5.42
##  8  2013     1     8  2.55
##  9  2013     1     9  2.28
## 10  2013     1    10  2.84
## # ... with 355 more rows

Pipe

Consider following analysis:

by_dest <- group_by(flights, dest)
delay <- summarise(by_dest, count = n(),
  dist = mean(distance, na.rm = TRUE),
  delay = mean(arr_delay, na.rm = TRUE)
)
(delay <- filter(delay, count > 20, dest != "HNL"))

## # A tibble: 96 x 4
##    dest  count  dist delay
##    <chr> <int> <dbl> <dbl>
##  1 ABQ     254  1826  4.38
##  2 ACK     265   199  4.85
##  3 ALB     439   143 14.4 
##  4 ATL   17215   757 11.3 
##  5 AUS    2439  1514  6.02
##  6 AVL     275   584  8.00
##  7 BDL     443   116  7.05
##  8 BGR     375   378  8.03
##  9 BHM     297   866 16.9 
## 10 BNA    6333   758 11.8 
## # ... with 86 more rows

Cleaner code using pipe %>%:

(delays <- flights %>% 
  group_by(dest) %>% 
  summarise(
    count = n(),
    dist = mean(distance, na.rm = TRUE),
    delay = mean(arr_delay, na.rm = TRUE)
  ) %>% 
  filter(count > 20, dest != "HNL"))

## # A tibble: 96 x 4
##    dest  count  dist delay
##    <chr> <int> <dbl> <dbl>
##  1 ABQ     254  1826  4.38
##  2 ACK     265   199  4.85
##  3 ALB     439   143 14.4 
##  4 ATL   17215   757 11.3 
##  5 AUS    2439  1514  6.02
##  6 AVL     275   584  8.00
##  7 BDL     443   116  7.05
##  8 BGR     375   378  8.03
##  9 BHM     297   866 16.9 
## 10 BNA    6333   758 11.8 
## # ... with 86 more rows
…
Other summary functions

Location: mean(x), median(x).

not_cancelled <- flights %>% filter(!is.na(dep_delay), !is.na(arr_delay))
not_cancelled %>% 
  group_by(year, month, day) %>% 
  summarise(
    avg_delay1 = mean(arr_delay),
    avg_delay2 = mean(arr_delay[arr_delay > 0]) # the average positive delay
  )

## # A tibble: 365 x 5
## # Groups:   year, month [?]
##     year month   day avg_delay1 avg_delay2
##    <int> <int> <int>      <dbl>      <dbl>
##  1  2013     1     1     12.7         32.5
##  2  2013     1     2     12.7         32.0
##  3  2013     1     3      5.73        27.7
##  4  2013     1     4    - 1.93        28.3
##  5  2013     1     5    - 1.53        22.6
##  6  2013     1     6      4.24        24.4
##  7  2013     1     7    - 4.95        27.8
##  8  2013     1     8    - 3.23        20.8
##  9  2013     1     9    - 0.264       25.6
## 10  2013     1    10    - 5.90        27.3
## # ... with 355 more rows

Spread: sd(x), IQR(x), mad(x).

not_cancelled %>% 
  group_by(dest) %>% 
  summarise(distance_sd = sd(distance)) %>% 
  arrange(desc(distance_sd))

## # A tibble: 104 x 2
##    dest  distance_sd
##    <chr>       <dbl>
##  1 EGE         10.5 
##  2 SAN         10.4 
##  3 SFO         10.2 
##  4 HNL         10.0 
##  5 SEA          9.98
##  6 LAS          9.91
##  7 PDX          9.87
##  8 PHX          9.86
##  9 LAX          9.66
## 10 IND          9.46
## # ... with 94 more rows

Rank: min(x), quantile(x, 0.25), max(x).

# When do the first and last flights leave each day?
not_cancelled %>% 
  group_by(year, month, day) %>% 
  summarise(
    first = min(dep_time),
    last = max(dep_time)
  )

## # A tibble: 365 x 5
## # Groups:   year, month [?]
##     year month   day  first  last
##    <int> <int> <int>  <dbl> <dbl>
##  1  2013     1     1 517     2356
##  2  2013     1     2  42.0   2354
##  3  2013     1     3  32.0   2349
##  4  2013     1     4  25.0   2358
##  5  2013     1     5  14.0   2357
##  6  2013     1     6  16.0   2355
##  7  2013     1     7  49.0   2359
##  8  2013     1     8 454     2351
##  9  2013     1     9   2.00  2252
## 10  2013     1    10   3.00  2320
## # ... with 355 more rows

Position: first(x), nth(x, 2), last(x).

not_cancelled %>% 
  group_by(year, month, day) %>% 
  summarise(
    first_dep = first(dep_time), 
    last_dep = last(dep_time)
  )

## # A tibble: 365 x 5
## # Groups:   year, month [?]
##     year month   day first_dep last_dep
##    <int> <int> <int>     <int>    <int>
##  1  2013     1     1       517     2356
##  2  2013     1     2        42     2354
##  3  2013     1     3        32     2349
##  4  2013     1     4        25     2358
##  5  2013     1     5        14     2357
##  6  2013     1     6        16     2355
##  7  2013     1     7        49     2359
##  8  2013     1     8       454     2351
##  9  2013     1     9         2     2252
## 10  2013     1    10         3     2320
## # ... with 355 more rows

Count: n(x), sum(!is.na(x)), n_distinct(x).

# Which destinations have the most carriers?
not_cancelled %>% 
  group_by(dest) %>% 
  summarise(carriers = n_distinct(carrier)) %>% 
  arrange(desc(carriers))

## # A tibble: 104 x 2
##    dest  carriers
##    <chr>    <int>
##  1 ATL          7
##  2 BOS          7
##  3 CLT          7
##  4 ORD          7
##  5 TPA          7
##  6 AUS          6
##  7 DCA          6
##  8 DTW          6
##  9 IAD          6
## 10 MSP          6
## # ... with 94 more rows
…
